Mueller Industries Analysis: Co-Integration
…
2. Gather Data

I start by gathering the Mueller Quarter Revenue Data from Q1 of 2016 and creating a data frame for it.

file_path <- "Mueller Quarterly Revenue.xlsx"
rev_data  <- read_excel(file_path)

# Convert and sort the Date column
rev_data$Date <- as.Date(rev_data$Date)
rev_data      <- rev_data[order(rev_data$Date), ]

# Just to see what we've got:
print(rev_data)

# A tibble: 37 × 2
   Date       Price
   <date>     <chr>
 1 2015-12-31 472  
 2 2016-03-31 533  
 3 2016-06-30 544  
 4 2016-09-30 507  
 5 2016-12-31 472  
 6 2017-03-31 578  
 7 2017-06-30 614  
 8 2017-09-30 550  
 9 2017-12-31 524  
10 2018-03-31 640  
# ℹ 27 more rows
…
